{
  "id": "test",
  "nodes": [
    {
      "id": "n0",
      "sockets": [
        {
          "endpoint": {
            "element": "n0.0~n1.0"
          }
        },
        {
          "index": 1,
          "endpoint": {
            "element": "n3.1~n0.1",
            "index": 1
          }
        },
        {
          "index": 2,
          "endpoint": {
            "element": "n0.2~n1.2~n2.2~n3.2"
          }
        }
      ],
      "metal": {
        "op": "EQ",
        "value": true
      },
      "properties": {}
    },
    {
      "id": "n1",
      "sockets": [
        {
          "endpoint": {
            "element": "n0.0~n1.0",
            "index": 1
          }
        },
        {
          "index": 1,
          "endpoint": {
            "element": "n1.1~n2.0"
          }
        },
        {
          "index": 2,
          "endpoint": {
            "element": "n0.2~n1.2~n2.2~n3.2",
            "index": 1
          }
        }
      ],
      "metal": {
        "op": "EQ",
        "value": true
      },
      "properties": {}
    },
    {
      "id": "n2",
      "sockets": [
        {
          "endpoint": {
            "element": "n1.1~n2.0",
            "index": 1
          }
        },
        {
          "index": 1,
          "endpoint": {
            "element": "n2.1~n3.0"
          }
        },
        {
          "index": 2,
          "endpoint": {
            "element": "n0.2~n1.2~n2.2~n3.2",
            "index": 2
          }
        }
      ],
      "metal": {
        "op": "EQ",
        "value": true
      },
      "properties": {}
    },
    {
      "id": "n3",
      "sockets": [
        {
          "endpoint": {
            "element": "n2.1~n3.0",
            "index": 1
          }
        },
        {
          "index": 1,
          "endpoint": {
            "element": "n3.1~n0.1"
          }
        },
        {
          "index": 2,
          "endpoint": {
            "element": "n0.2~n1.2~n2.2~n3.2",
            "index": 3
          }
        }
      ],
      "metal": {
        "op": "EQ",
        "value": true
      },
      "properties": {}
    }
  ],
  "links": [
    {
      "id": "n0.0~n1.0",
      "endpoints": [
        {
          "socket": {
            "element": "n0"
          }
        },
        {
          "index": 1,
          "socket": {
            "element": "n1"
          }
        }
      ],
      "properties": {}
    },
    {
      "id": "n1.1~n2.0",
      "endpoints": [
        {
          "socket": {
            "element": "n1",
            "index": 1
          }
        },
        {
          "index": 1,
          "socket": {
            "element": "n2"
          }
        }
      ],
      "properties": {}
    },
    {
      "id": "n2.1~n3.0",
      "endpoints": [
        {
          "socket": {
            "element": "n2",
            "index": 1
          }
        },
        {
          "index": 1,
          "socket": {
            "element": "n3"
          }
        }
      ],
      "properties": {}
    },
    {
      "id": "n3.1~n0.1",
      "endpoints": [
        {
          "socket": {
            "element": "n3",
            "index": 1
          }
        },
        {
          "index": 1,
          "socket": {
            "element": "n0",
            "index": 1
          }
        }
      ],
      "properties": {}
    },
    {
      "id": "n0.2~n1.2~n2.2~n3.2",
      "endpoints": [
        {
          "socket": {
            "element": "n0",
            "index": 2
          }
        },
        {
          "index": 1,
          "socket": {
            "element": "n1",
            "index": 2
          }
        },
        {
          "index": 2,
          "socket": {
            "element": "n2",
            "index": 2
          }
        },
        {
          "index": 3,
          "socket": {
            "element": "n3",
            "index": 2
          }
        }
      ],
      "properties": {}
    }
  ],
  "parameters": {}
}